<?xml version="1.0" encoding="UTF-8" standalone="no"?>
<svg
   version="1.0"
   width="512.000000pt"
   height="512.000000pt"
   viewBox="0 0 512.000000 512.000000"
   preserveAspectRatio="xMidYMid meet"
   id="svg1"
   sodipodi:docname="white_transparent.svg"
   inkscape:version="1.3.2 (091e20ef0f, 2023-11-25, custom)"
   xmlns:inkscape="http://www.inkscape.org/namespaces/inkscape"
   xmlns:sodipodi="http://sodipodi.sourceforge.net/DTD/sodipodi-0.dtd"
   xmlns="http://www.w3.org/2000/svg"
   xmlns:svg="http://www.w3.org/2000/svg">
  <defs
     id="defs1" />
  <sodipodi:namedview
     id="namedview1"
     pagecolor="#ffffff"
     bordercolor="#000000"
     borderopacity="0.25"
     inkscape:showpageshadow="2"
     inkscape:pageopacity="0.0"
     inkscape:pagecheckerboard="true"
     inkscape:deskcolor="#d1d1d1"
     inkscape:document-units="pt"
     inkscape:zoom="1.7226563"
     inkscape:cx="341.33333"
     inkscape:cy="341.33333"
     inkscape:window-width="2534"
     inkscape:window-height="1389"
     inkscape:window-x="11"
     inkscape:window-y="36"
     inkscape:window-maximized="1"
     inkscape:current-layer="svg1" />
  <metadata
     id="metadata1">
Created by potrace 1.16, written by Peter Selinger 2001-2019
</metadata>
  <path
     style="fill:#e6e6e6;stroke-width:0.580499"
     d="M 219.71882,462.32585 C 194.68677,455.07204 169.31586,444.87624 144.83447,432.23211 116.80411,417.755 106.97808,410.65643 86.160951,389.84485 71.826823,375.51455 66.630192,369.2384 62.735795,361.55344 c -6.925284,-13.6659 -6.051879,-22.05463 3.395972,-32.61703 4.645435,-5.19344 4.488599,-4.66278 4.971141,-16.82008 1.462489,-36.84637 15.013483,-80.6913 33.490882,-108.36144 13.68015,-20.4862 37.19918,-44.66262 57.58057,-59.19001 3.15146,-2.24628 5.95962,-4.08415 6.24037,-4.08415 0.76966,0 0.67564,1.46037 -1.58829,24.6712 -2.31535,23.7381 -2.75129,37.32729 -1.47113,45.85941 6.26531,41.75782 25.12377,84.53393 66.55254,150.9593 4.311,6.91211 7.83818,12.87235 7.83818,13.245 0,0.37264 -1.56668,5.34687 -3.48152,11.05385 -3.97781,11.85542 -6.3686,21.14965 -8.22632,31.97994 -1.73812,10.13307 -1.92551,31.68076 -0.33751,38.81039 0.55873,2.50853 1.01587,5.18608 1.01587,5.95012 0,1.81342 -0.51396,1.77435 -8.99773,-0.68409 z"
     id="path2"
     transform="scale(0.75)" />
  <path
     style="fill:#e6e6e6;stroke-width:0.580499"
     d="m 250.94738,344.6712 c -16.20553,-24.66492 -29.37438,-49.91587 -40.62825,-77.90371 -10.0632,-25.0267 -18.72907,-63.21169 -18.74946,-82.61697 -0.006,-5.52634 1.00099,-8.21749 6.72052,-17.9639 19.44259,-33.1313 51.8471,-68.129374 81.80051,-88.34759 24.13093,-16.288104 48.60416,-26.790389 82.68767,-35.484056 7.58733,-1.935298 8.16255,-2.005442 8.15495,-0.99443 -0.0105,1.390617 -6.83754,16.536619 -16.41921,36.426304 l -9.64793,20.027211 -2.04112,16.834471 c -2.84322,23.44997 -3.21277,29.50818 -3.61185,59.21088 -0.5297,39.42514 0.55318,60.40664 4.44908,86.20408 1.59198,10.54158 2.84029,19.92124 2.67601,20.10733 -0.0389,0.0441 -5.30728,2.69622 -11.70752,5.89367 -13.94989,6.96914 -20.96688,10.96189 -29.86888,16.99578 -16.53962,11.21076 -30.04088,23.9294 -41.70651,39.28894 -3.94046,5.1882 -7.22552,9.4331 -7.30014,9.4331 -0.0746,0 -2.23815,-3.2 -4.80787,-7.11111 z"
     id="path3"
     transform="scale(0.75)" />
  <path
     style="fill:#e6e6e6;stroke-width:0.580499"
     d="m 432.7619,297.47723 c -13.50937,-6.64787 -27.86819,-11.04558 -47.31065,-14.48995 -4.94876,-0.87671 -9.57864,-1.95393 -10.28863,-2.39382 -1.56797,-0.97149 -2.53247,-4.15529 -4.4608,-14.72498 -2.19211,-12.01561 -3.19729,-22.19292 -3.81739,-38.65071 -1.43911,-38.19432 -0.46082,-64.46522 4.23442,-113.71145 l 1.27117,-13.33269 2.61225,-0.715468 c 4.14971,-1.136574 20.89131,-3.098657 31.453,-3.686232 10.79337,-0.600464 48.01041,0.145814 57.94382,1.161893 20.26024,2.072399 44.15644,8.204427 63.27856,16.237987 24.68354,10.37002 52.50328,27.84384 64.61327,40.58419 3.43818,3.61714 3.73464,4.72019 1.26863,4.72019 -3.4732,0 -32.03353,9.81665 -40.63438,13.9667 -5.63444,2.71871 -10.32975,6.22224 -17.99546,13.42783 -25.2761,23.7589 -56.64115,62.43433 -85.6896,105.66163 -3.81685,5.67988 -7.12669,10.30517 -7.35522,10.27841 -0.22853,-0.0267 -4.33387,-1.97684 -9.12299,-4.33353 z"
     id="path4"
     transform="scale(0.75)" />
  <path
     style="fill:#e6e6e6;stroke-width:0.580499"
     d="m 630.57604,393.65503 -20.33908,-6.8892 -26.04365,-0.66889 c -34.5261,-0.88676 -48.29112,-2.00563 -72.77381,-5.91529 -11.93403,-1.90576 -40.13256,-7.45515 -40.72262,-8.0141 -0.20788,-0.19691 -0.67904,-5.32129 -1.04702,-11.3875 -1.1213,-18.4845 -2.93034,-28.64139 -7.0995,-39.86033 l -2.30083,-6.19139 5.3721,-8.03083 c 22.39255,-33.47495 53.6774,-68.15863 92.52563,-102.57773 3.82997,-3.39331 7.12747,-6.16966 7.32777,-6.16966 0.56213,0 11.08622,11.06238 19.11738,20.09521 17.96076,20.20088 30.20364,37.33253 41.06065,57.4568 19.48575,36.11826 27.9932,67.78409 28.13569,104.72464 0.06,15.55009 -0.37588,20.31746 -1.85758,20.31746 -0.55883,0 -10.16864,-3.10014 -21.35513,-6.88919 z"
     id="path5"
     transform="scale(0.75)" />
  <path
     style="fill:#e6e6e6;stroke-width:0.580499"
     d="m 486.71468,603.35772 c 0.17601,-3.15378 0.60897,-13.62103 0.96215,-23.26056 l 0.64214,-17.52643 -5.2114,-13.24024 c -12.83608,-32.61174 -28.68383,-64.92731 -51.16829,-104.33866 -4.17704,-7.32162 -7.59461,-13.51715 -7.59461,-13.76786 0,-0.25071 2.54694,-1.93093 5.65987,-3.73382 13.99696,-8.10655 21.29428,-14.08364 28.11391,-23.02756 2.19497,-2.87871 3.8347,-4.49887 4.55321,-4.49887 0.61758,0 8.92115,2.21929 18.45238,4.93175 37.45007,10.65781 58.84763,14.47832 96.08104,17.15516 9.52266,0.68462 18.5349,1.54615 20.02721,1.91452 2.63496,0.65044 2.72461,0.74518 3.10564,3.28202 0.73976,4.92538 0.49112,30.8197 -0.37423,38.97308 -3.0682,28.90864 -13.88069,54.25552 -33.76747,79.15843 -9.80725,12.28099 -28.22112,29.78037 -42.8765,40.74715 -9.44517,7.06791 -31.33259,20.81998 -35.96689,22.59833 -0.86344,0.33134 -0.92654,-0.19921 -0.63816,-5.36644 z"
     id="path6"
     transform="scale(0.75)" />
  <path
     style="fill:#e6e6e6;stroke-width:0.580499"
     d="m 407.5102,401.24266 c 0,-1.25159 14.51045,-59.98187 15.08486,-61.05517 0.34621,-0.64688 0.81619,-1.17248 1.04441,-1.16799 0.94323,0.0186 9.3432,4.90779 12.19132,7.096 4.38352,3.36786 8.49803,8.06257 10.30753,11.76105 1.4433,2.95001 1.54288,3.61973 1.31618,8.85247 -0.27113,6.25869 -0.79855,7.68894 -4.74743,12.87416 -3.11938,4.096 -11.18701,11.13194 -16.13446,14.07116 -2.14824,1.27625 -6.72835,3.45123 -10.17803,4.83331 -7.57425,3.03453 -8.88438,3.43785 -8.88438,2.73501 z"
     id="path7"
     transform="scale(0.75)" />
  <path
     style="fill:#e6e6e6;stroke-width:0.580499"
     d="m 381.39726,396.9022 c -3.32282,-1.65523 -5.3317,-3.06368 -6.17585,-4.32995 -2.68737,-4.0312 -10.18562,-30.86447 -13.32938,-47.70055 -0.93711,-5.01856 -1.51351,-10.31782 -1.58308,-14.55425 l -0.1094,-6.66215 6.67573,-2.62221 6.67574,-2.62222 11.02948,-0.004 c 6.06621,-0.002 12.27029,0.2083 13.78685,0.46732 2.61501,0.44663 2.75729,0.56651 2.75586,2.322 -0.002,2.27843 -2.35136,17.3979 -4.37141,28.1307 -1.90628,10.1283 -8.21578,42.98566 -9.02688,47.00833 -0.33797,1.67619 -0.79189,3.04137 -1.00871,3.03372 -0.21682,-0.008 -2.61035,-1.11785 -5.31895,-2.46712 z"
     id="path8"
     transform="scale(0.75)" />
  <path
     style="fill:#e6e6e6;stroke-width:0.580499"
     d="m 258.99204,469.18821 c -2.48392,-10.46095 -3.13954,-16.76347 -3.12498,-30.04082 0.0149,-13.61443 1.00407,-21.87809 3.87075,-32.33777 7.69722,-28.08491 24.8573,-53.89132 51.40958,-77.31296 11.5619,-10.19869 26.98957,-22.31964 27.61396,-21.69525 0.1547,0.15471 -0.40979,4.04023 -1.25443,8.6345 -1.33249,7.24774 -1.49687,9.39032 -1.24218,16.18994 0.34716,9.26816 1.50124,15.68974 8.3214,46.30239 l 4.94853,22.21169 -7.21307,8.2645 c -12.87165,14.74794 -34.64933,35.33477 -47.02059,44.44943 -12.37496,9.11737 -32.75088,22.73571 -34.01743,22.73571 -0.29376,0 -1.32495,-3.33061 -2.29154,-7.40136 z"
     id="path9"
     transform="scale(0.75)" />
  <path
     style="fill:#e6e6e6;stroke-width:0.580499"
     d="m 362.52154,599.08506 c -11.80306,-1.27082 -27.12537,-5.91717 -40.05442,-12.14612 -25.97935,-12.51631 -42.21804,-27.50954 -60.26437,-55.64227 -5.80747,-9.05336 -12.45524,-22.00994 -11.66103,-22.72749 0.28822,-0.26039 3.78935,-1.46294 7.78028,-2.67231 17.05056,-5.16684 22.00298,-7.68226 37.74126,-19.16942 28.63819,-20.90262 47.19343,-37.81483 61.54043,-56.09115 3.59364,-4.57786 6.85634,-8.25404 7.25044,-8.16929 0.39411,0.0847 6.03866,2.72417 12.54346,5.86539 6.50479,3.14122 13.96765,6.59842 16.58412,7.68265 l 4.75722,1.97134 2.98143,4.93424 c 4.15041,6.86891 17.39135,33.54928 23.0472,46.43991 9.27345,21.13575 16.11113,39.46014 21.33619,57.17914 3.12608,10.60103 7.84983,28.11676 7.84217,29.07886 -0.006,0.79163 -11.17484,7.8619 -17.12052,10.83819 -11.39946,5.70633 -26.62802,10.37358 -38.31293,11.74214 -9.14073,1.07058 -29.59973,1.57433 -35.99093,0.88619 z"
     id="path10"
     transform="scale(0.75)" />
  <path
     style="fill:#e6e6e6;stroke-width:0.580499"
     d="m 203.7551,641.21274 c 0,-0.13118 0.6478,-2.67812 1.43956,-5.65987 3.52316,-13.26815 5.28498,-30.30178 4.79217,-46.33169 -0.49564,-16.12232 -2.24414,-22.10512 -11.20774,-38.34929 -11.65246,-21.11704 -13.88987,-28.05718 -13.84178,-42.93538 0.0278,-8.61191 0.6085,-13.40269 2.74401,-22.63946 0.84055,-3.63562 -0.10091,-3.39638 9.31443,-2.36701 3.14675,0.34404 10.90111,0.62552 17.23191,0.62552 h 11.51055 l -0.32781,8.2721 c -0.48302,12.18913 0.90349,17.9678 8.79768,36.66679 9.77592,23.15626 11.76096,33.16636 9.08532,45.81507 -4.09929,19.37873 -13.87051,37.10728 -33.10112,60.05746 -5.41902,6.46716 -6.43718,7.54995 -6.43718,6.84576 z"
     id="path11"
     transform="scale(0.75)" />
  <path
     style="fill:#e6e6e6;stroke-width:0.580499"
     d="m 117.64076,616.76247 c -0.81763,-15.20256 -1.11776,-71.95208 -0.44352,-83.86451 1.23922,-21.89474 3.86475,-40.47179 7.38388,-52.2449 3.56885,-11.93947 9.07097,-25.55122 10.32053,-25.53206 0.56394,0.009 30.90726,15.47931 33.69351,17.17877 0.98663,0.60179 0.90334,0.90912 -1.25854,4.64399 -4.7533,8.2118 -6.97026,15.87074 -10.01184,34.58787 -7.65867,47.12958 -8.86388,53.54625 -12.29188,65.44332 -4.55346,15.80309 -13.48456,32.28797 -22.99105,42.43653 l -4.02738,4.29941 z"
     id="path12"
     transform="scale(0.75)" />
  <path
     style="fill:#e6e6e6;stroke-width:0.580499"
     d="m 79.333562,559.60091 c -1.258037,-3.38039 -4.755403,-15.35663 -6.180597,-21.16459 -3.43641,-14.00411 -5.021758,-30.54406 -4.453511,-46.46353 0.889489,-24.91908 6.461374,-43.5705 19.379353,-64.87075 2.081529,-3.4322 3.948737,-6.24036 4.149351,-6.24036 0.415829,0 27.539812,29.49994 27.842612,30.28151 0.10876,0.28074 -1.93369,4.27659 -4.53877,8.87968 -11.49264,20.30704 -22.593264,50.46467 -33.020895,89.70956 -1.569418,5.90657 -2.999312,10.34739 -3.177543,9.86848 z"
     id="path14"
     transform="scale(0.75)" />
  <path
     style="fill:#e6e6e6;stroke-width:0.580499"
     d="m 32.892892,492.144 c -3.457611,-16.17248 -4.070928,-21.11226 -4.057394,-32.67915 0.02428,-20.7527 4.209442,-38.80086 12.702572,-54.77879 3.266561,-6.1453 11.880225,-19.33231 12.483408,-19.11135 0.978545,0.35846 22.023873,26.23025 22.023873,27.07475 0,0.30394 -2.172718,3.77806 -4.828263,7.72028 -2.655545,3.94222 -6.296134,9.91053 -8.090198,13.26291 -7.573532,14.15187 -17.236792,37.02124 -24.232913,57.35035 l -3.854638,11.20068 z"
     id="path15"
     transform="scale(0.75)" />
</svg>
